[{
        "performance": "Shrek",
        "language": "english",
        "performanceType": "Movie",
        "building": "October",
        "city": "Minsk",
        "hall": "Small hall",
        "date": "2020-03-08",
        "time": "19:00:00",
        "seat": {
            "place": 1
        },
        "price": 5
    },
    {
        "performance": "Shrek",
        "language": "english",
        "performanceType": "Movie",
        "building": "October",
        "city": "Minsk",
        "hall": "Small hall",
        "date": "2020-03-08",
        "time": "19:00:00",
        "seat": {
            "place": 2
        },
        "price": 5
    },
    {
        "performance": "Shrek",
        "language": "english",
        "performanceType": "Movie",
        "building": "October",
        "city": "Minsk",
        "hall": "Small hall",
        "date": "2020-03-08",
        "time": "19:00:00",
        "seat": {
            "row": 1,
            "place": 3
        },
        "price": 6
    },
    {
        "performance": "Shrek",
        "language": "english",
        "performanceType": "Movie",
        "building": "October",
        "city": "Minsk",
        "hall": "Small hall",
        "date": "2020-03-08",
        "time": "19:00:00",
        "seat": {
            "row": 1,
            "place": 4
        },
        "price": 6
    },
    {
        "performance": "Shrek",
        "language": "english",
        "performanceType": "Movie",
        "building": "October",
        "city": "Minsk",
        "hall": "Small hall",
        "date": "2020-03-08",
        "time": "19:00:00",
        "seat": {
            "row": 1,
            "place": 5
        },
        "price": 7
    },
    {
        "performance": "Shrek",
        "language": "english",
        "performanceType": "Movie",
        "building": "October",
        "city": "Minsk",
        "hall": "Small hall",
        "date": "2020-03-08",
        "time": "19:00:00",
        "seat": {
            "row": 1,
            "place": 6
        },
        "price": 7
    },
    {
        "performance": "Shrek",
        "language": "english",
        "performanceType": "Movie",
        "building": "October",
        "city": "Minsk",
        "hall": "Small hall",
        "date": "2020-03-08",
        "time": "19:00:00",
        "seat": {
            "row": 1,
            "place": 7
        },
        "price": 6
    },
    {
        "performance": "Shrek",
        "language": "english",
        "performanceType": "Movie",
        "building": "October",
        "city": "Minsk",
        "hall": "Small hall",
        "date": "2020-03-08",
        "time": "19:00:00",
        "seat": {
            "row": 1,
            "place": 8
        },
        "price": 6
    },
    {
        "performance": "Shrek",
        "language": "english",
        "performanceType": "Movie",
        "building": "October",
        "city": "Minsk",
        "hall": "Small hall",
        "date": "2020-03-08",
        "time": "19:00:00",
        "seat": {
            "row": 1,
            "place": 9
        },
        "price": 5
    },
    {
        "performance": "Shrek",
        "language": "english",
        "performanceType": "Movie",
        "building": "October",
        "city": "Minsk",
        "hall": "Small hall",
        "date": "2020-03-08",
        "time": "19:00:00",
        "seat": {
            "row": 1,
            "place": 10
        },
        "price": 5
    },
    {
        "performance": "Shrek",
        "language": "english",
        "performanceType": "Movie",
        "building": "October",
        "city": "Minsk",
        "hall": "Large hall",
        "date": "2020-03-08",
        "time": "19:00:00",
        "seat": {
            "row": 1,
            "place": 10
        },
        "price": 5
    }
]